[gd_scene load_steps=7 format=2]

[ext_resource path="res://game/audio/game2.wav" type="AudioStream" id=1]
[ext_resource path="res://game/audio/game3.wav" type="AudioStream" id=2]
[ext_resource path="res://game/audio/start.wav" type="AudioStream" id=3]
[ext_resource path="res://game/audio/game1.wav" type="AudioStream" id=4]
[ext_resource path="res://game/audio/end.wav" type="AudioStream" id=5]
[ext_resource path="res://game/music_manager.gd" type="Script" id=6]

[node name="MusicManager" type="Node2D"]
script = ExtResource( 6 )

[node name="start" type="AudioStreamPlayer" parent="."]
stream = ExtResource( 3 )

[node name="end" type="AudioStreamPlayer" parent="."]
stream = ExtResource( 5 )

[node name="game1" type="AudioStreamPlayer" parent="."]
stream = ExtResource( 4 )

[node name="game2" type="AudioStreamPlayer" parent="."]
stream = ExtResource( 1 )

[node name="game3" type="AudioStreamPlayer" parent="."]
stream = ExtResource( 2 )
