; Engine configuration file.
; It's best edited using the editor UI and not directly,
; since the parameters that go here are not all obvious.
;
; Format:
;   [section] ; section goes between []
;   param=value ; assign values to parameters

config_version=4

_global_script_classes=[ {
"base": "Reference",
"class": "Appender",
"language": "GDScript",
"path": "res://addons/gs_logger/appender.gd"
}, {
"base": "Component",
"class": "BallComponent",
"language": "GDScript",
"path": "res://game/ecs/components/ball_component.gd"
}, {
"base": "System",
"class": "BlockBounceSystem",
"language": "GDScript",
"path": "res://game/ecs/systems/block_bounce_system.gd"
}, {
"base": "System",
"class": "BlockCollisionSystem",
"language": "GDScript",
"path": "res://game/ecs/systems/block_collision_system.gd"
}, {
"base": "Component",
"class": "BlockComponent",
"language": "GDScript",
"path": "res://game/ecs/components/block_component.gd"
}, {
"base": "System",
"class": "BounceSystem",
"language": "GDScript",
"path": "res://game/ecs/systems/ball_bounce_system.gd"
}, {
"base": "Component",
"class": "CollisionComponent",
"language": "GDScript",
"path": "res://game/ecs/components/collision_component.gd"
}, {
"base": "System",
"class": "CollisionSystem",
"language": "GDScript",
"path": "res://game/ecs/systems/ball_collision_system.gd"
}, {
"base": "Reference",
"class": "Component",
"language": "GDScript",
"path": "res://addons/gs_ecs/component.gd"
}, {
"base": "Reference",
"class": "Configuration",
"language": "GDScript",
"path": "res://addons/gs_core/configuration.gd"
}, {
"base": "Appender",
"class": "ConsoleAppender",
"language": "GDScript",
"path": "res://addons/gs_logger/appenders/console_appender.gd"
}, {
"base": "Resource",
"class": "DreamLoSettingsResource",
"language": "GDScript",
"path": "res://gs_dreamlo/resources/dreamlo_settings_resource.gd"
}, {
"base": "Reference",
"class": "Entity",
"language": "GDScript",
"path": "res://addons/gs_ecs/entity.gd"
}, {
"base": "Appender",
"class": "FileAppender",
"language": "GDScript",
"path": "res://addons/gs_logger/appenders/file_appender.gd"
}, {
"base": "Node",
"class": "Game",
"language": "GDScript",
"path": "res://addons/gs_core/game.gd"
}, {
"base": "Resource",
"class": "GameData",
"language": "GDScript",
"path": "res://addons/gs_core/data/game_data.gd"
}, {
"base": "LudumSettingsResource",
"class": "GameSettingsResource",
"language": "GDScript",
"path": "res://game/resources/game_settings_resource.gd"
}, {
"base": "Reference",
"class": "Group",
"language": "GDScript",
"path": "res://addons/gs_ecs/group.gd"
}, {
"base": "Layout",
"class": "HtmlLayout",
"language": "GDScript",
"path": "res://addons/gs_logger/layouts/html_layout.gd"
}, {
"base": "Component",
"class": "LaserComponent",
"language": "GDScript",
"path": "res://game/ecs/components/missle_component.gd"
}, {
"base": "Reference",
"class": "Layout",
"language": "GDScript",
"path": "res://addons/gs_logger/layout.gd"
}, {
"base": "Node",
"class": "LudumScene",
"language": "GDScript",
"path": "res://gs_ludumdare/scenes/ludum_scene.gd"
}, {
"base": "Resource",
"class": "LudumSettingsResource",
"language": "GDScript",
"path": "res://gs_ludumdare/resources/ludum_settings_resource.gd"
}, {
"base": "Reference",
"class": "Message",
"language": "GDScript",
"path": "res://addons/gs_logger/message.gd"
}, {
"base": "System",
"class": "MeteorBounceSystem",
"language": "GDScript",
"path": "res://game/ecs/systems/meteor_bounce_system.gd"
}, {
"base": "System",
"class": "MeteorCollisionSystem",
"language": "GDScript",
"path": "res://game/ecs/systems/meteor_collision_system.gd"
}, {
"base": "Component",
"class": "MeteorComponent",
"language": "GDScript",
"path": "res://game/ecs/components/meteor_component.gd"
}, {
"base": "Component",
"class": "MoveComponent",
"language": "GDScript",
"path": "res://game/ecs/components/move_component.gd"
}, {
"base": "System",
"class": "MoveSystem",
"language": "GDScript",
"path": "res://game/ecs/systems/move_system.gd"
}, {
"base": "Layout",
"class": "PatternLayout",
"language": "GDScript",
"path": "res://addons/gs_logger/layouts/pattern_layout.gd"
}, {
"base": "Component",
"class": "PlayerComponent",
"language": "GDScript",
"path": "res://game/ecs/components/player_component.gd"
}, {
"base": "System",
"class": "PlayerControllerSystem",
"language": "GDScript",
"path": "res://game/ecs/systems/player_controller_system.gd"
}, {
"base": "System",
"class": "PlayerMoveSystem",
"language": "GDScript",
"path": "res://game/ecs/systems/player_move_system.gd"
}, {
"base": "Component",
"class": "ShipComponent",
"language": "GDScript",
"path": "res://game/ecs/components/ship_component.gd"
}, {
"base": "System",
"class": "SpawnTimerSystem",
"language": "GDScript",
"path": "res://game/ecs/systems/spawn_timer_system.gd"
}, {
"base": "Component",
"class": "SpawnerComponent",
"language": "GDScript",
"path": "res://game/ecs/components/spawner_component.gd"
}, {
"base": "System",
"class": "SpawnerSystem",
"language": "GDScript",
"path": "res://game/ecs/systems/spawner_system.gd"
}, {
"base": "Reference",
"class": "System",
"language": "GDScript",
"path": "res://addons/gs_ecs/system.gd"
}, {
"base": "Reference",
"class": "Thing",
"language": "GDScript",
"path": "res://addons/gs_core/thing.gd"
}, {
"base": "Component",
"class": "TimerComponent",
"language": "GDScript",
"path": "res://game/ecs/components/timer_component.gd"
}, {
"base": "System",
"class": "TimerSystem",
"language": "GDScript",
"path": "res://game/ecs/systems/timer_system.gd"
}, {
"base": "Reference",
"class": "UUID",
"language": "GDScript",
"path": "res://addons/gs_core/uuid.gd"
}, {
"base": "Reference",
"class": "Utils",
"language": "GDScript",
"path": "res://addons/gs_logger/utils.gd"
}, {
"base": "Resource",
"class": "ViewResource",
"language": "GDScript",
"path": "res://gs_window_manager/resources/view_resource.gd"
}, {
"base": "Component",
"class": "WaveComponent",
"language": "GDScript",
"path": "res://game/ecs/components/wave_component.gd"
}, {
"base": "Resource",
"class": "WavePattern",
"language": "GDScript",
"path": "res://game/resources/wave_pattern.gd"
}, {
"base": "Resource",
"class": "WaveType",
"language": "GDScript",
"path": "res://game/resources/wave_type.gd"
}, {
"base": "Resource",
"class": "WindowManagerResource",
"language": "GDScript",
"path": "res://gs_window_manager/resources/window_manager_resource.gd"
}, {
"base": "Resource",
"class": "WindowResource",
"language": "GDScript",
"path": "res://gs_window_manager/resources/window_resource.gd"
} ]
_global_script_class_icons={
"Appender": "",
"BallComponent": "",
"BlockBounceSystem": "",
"BlockCollisionSystem": "",
"BlockComponent": "",
"BounceSystem": "",
"CollisionComponent": "",
"CollisionSystem": "",
"Component": "",
"Configuration": "",
"ConsoleAppender": "",
"DreamLoSettingsResource": "",
"Entity": "",
"FileAppender": "",
"Game": "",
"GameData": "",
"GameSettingsResource": "",
"Group": "",
"HtmlLayout": "",
"LaserComponent": "",
"Layout": "",
"LudumScene": "",
"LudumSettingsResource": "",
"Message": "",
"MeteorBounceSystem": "",
"MeteorCollisionSystem": "",
"MeteorComponent": "",
"MoveComponent": "",
"MoveSystem": "",
"PatternLayout": "",
"PlayerComponent": "",
"PlayerControllerSystem": "",
"PlayerMoveSystem": "",
"ShipComponent": "",
"SpawnTimerSystem": "",
"SpawnerComponent": "",
"SpawnerSystem": "",
"System": "",
"Thing": "",
"TimerComponent": "",
"TimerSystem": "",
"UUID": "",
"Utils": "",
"ViewResource": "",
"WaveComponent": "",
"WavePattern": "",
"WaveType": "",
"WindowManagerResource": "",
"WindowResource": ""
}

[application]

config/name="ldtest"
config/description="None"
config/version="0.0.0"

[autoload]

Logger="*res://addons/gs_logger/logger.gd"
Core="*res://addons/gs_core/core.gd"
Ludum="*res://gs_ludumdare/ludum.tscn"
DreamLo="*res://gs_dreamlo/dreamlo.tscn"
SceneManager="*res://gs_scene_manager/scene_manager.tscn"
WindowManager="*res://gs_window_manager/window_manager.tscn"
ECS="*res://addons/gs_ecs/ecs.gd"
Global="*res://game/global.tscn"
MusicManager="*res://game/music_manager.tscn"
SoundManager="*res://game/sound_manager.tscn"

[display]

window/size/width=1920
window/size/height=1080
window/stretch/mode="2d"
window/stretch/aspect="keep"

[editor_plugins]

enabled=PoolStringArray( "res://addons/gs_ecs/plugin.cfg", "res://addons/gs_logger/plugin.cfg" )

[importer_defaults]

texture={
"compress/bptc_ldr": 0,
"compress/hdr_mode": 0,
"compress/lossy_quality": 0.7,
"compress/mode": 0,
"compress/normal_map": 0,
"detect_3d": false,
"flags/anisotropic": false,
"flags/filter": true,
"flags/mipmaps": false,
"flags/repeat": 0,
"flags/srgb": 2,
"process/HDR_as_SRGB": false,
"process/fix_alpha_border": true,
"process/invert_color": false,
"process/normal_map_invert_y": false,
"process/premult_alpha": false,
"size_limit": 0,
"stream": false,
"svg/scale": 1.0
}

[layer_names]

2d_physics/layer_1="ball"
2d_physics/layer_2="player"
2d_physics/layer_3="block"
2d_physics/layer_4="planet"
2d_physics/layer_5="shield"
2d_physics/layer_6="blocker"
2d_physics/layer_7="ship"
2d_physics/layer_8="meteor"

[logger]

level="INFO"

[network]

limits/debugger_stdout/max_chars_per_second=16384
