[gd_scene load_steps=2 format=2]

[sub_resource type="RectangleShape2D" id=1]
extents = Vector2( 11, 597.5 )

[node name="Walls" type="Node2D"]

[node name="Wall1" type="StaticBody2D" parent="."]
collision_layer = 32
collision_mask = 3

[node name="CollisionShape2D" type="CollisionShape2D" parent="Wall1"]
position = Vector2( -13, 520 )
shape = SubResource( 1 )

[node name="Wall2" type="StaticBody2D" parent="."]
position = Vector2( 960, 0 )
collision_layer = 32
collision_mask = 3

[node name="CollisionShape2D" type="CollisionShape2D" parent="Wall2"]
position = Vector2( 25, 532.5 )
shape = SubResource( 1 )

[node name="Wall3" type="StaticBody2D" parent="."]
position = Vector2( 480, 0 )
collision_layer = 32
collision_mask = 3

[node name="CollisionShape2D" type="CollisionShape2D" parent="Wall3"]
position = Vector2( 0, -14 )
rotation = 1.5708
shape = SubResource( 1 )

[node name="Wall4" type="StaticBody2D" parent="."]
position = Vector2( 480, 0 )
collision_layer = 32
collision_mask = 3

[node name="CollisionShape2D" type="CollisionShape2D" parent="Wall4"]
position = Vector2( 24, 1086 )
rotation = 1.5708
shape = SubResource( 1 )
