[gd_scene load_steps=2 format=2]

[ext_resource path="res://game/ecs/systems/player_controller_system.gd" type="Script" id=1]

[node name="PlayerController" type="Node"]
script = ExtResource( 1 )
COMPONENTS = "player"
