[gd_scene load_steps=2 format=2]

[ext_resource path="res://game/ecs/systems/spawn_timer_system.gd" type="Script" id=1]

[node name="SpawnTimer" type="Node"]
script = ExtResource( 1 )
COMPONENTS = "spawner, timer"
