[gd_scene load_steps=7 format=2]

[ext_resource path="res://game/assets/tiles/tileBlack_25.png" type="Texture" id=1]
[ext_resource path="res://addons/gs_ecs/entity.gd" type="Script" id=2]
[ext_resource path="res://game/ecs/components/move_component.tscn" type="PackedScene" id=3]
[ext_resource path="res://game/ecs/components/collision_component.tscn" type="PackedScene" id=4]
[ext_resource path="res://game/ecs/components/block_component.tscn" type="PackedScene" id=5]

[sub_resource type="RectangleShape2D" id=1]
extents = Vector2( 77.5, 77 )

[node name="Block25" type="KinematicBody2D"]
scale = Vector2( 0.25, 0.25 )
collision_layer = 4
script = ExtResource( 2 )

[node name="Sprite" type="Sprite" parent="."]
texture = ExtResource( 1 )

[node name="CollisionShape2D" type="CollisionShape2D" parent="."]
position = Vector2( -0.5, 0 )
shape = SubResource( 1 )

[node name="Components" type="Node" parent="."]

[node name="Move" parent="Components" instance=ExtResource( 3 )]

[node name="Collision" parent="Components" instance=ExtResource( 4 )]

[node name="Block" parent="Components" instance=ExtResource( 5 )]
