[gd_scene load_steps=6 format=2]

[ext_resource path="res://game/assets/tiles/tileBlack_36.png" type="Texture" id=1]
[ext_resource path="res://game/ecs/components/collision_component.tscn" type="PackedScene" id=2]
[ext_resource path="res://game/ecs/components/move_component.tscn" type="PackedScene" id=3]
[ext_resource path="res://addons/gs_ecs/entity.gd" type="Script" id=4]
[ext_resource path="res://game/ecs/components/block_component.tscn" type="PackedScene" id=5]

[node name="Block36" type="KinematicBody2D"]
scale = Vector2( 0.25, 0.25 )
collision_layer = 4
collision_mask = 0
script = ExtResource( 4 )

[node name="Sprite" type="Sprite" parent="."]
texture = ExtResource( 1 )

[node name="CollisionPolygon2D" type="CollisionPolygon2D" parent="."]
polygon = PoolVector2Array( 64, -72, 84, 0, 0, 76, -84, 0, -60, -72 )

[node name="Components" type="Node" parent="."]

[node name="Move" parent="Components" instance=ExtResource( 3 )]

[node name="Collision" parent="Components" instance=ExtResource( 2 )]

[node name="Block" parent="Components" instance=ExtResource( 5 )]
