[gd_scene load_steps=7 format=2]

[ext_resource path="res://game/assets/ships/enemyBlack1.png" type="Texture" id=1]
[ext_resource path="res://addons/gs_ecs/entity.gd" type="Script" id=2]
[ext_resource path="res://game/ecs/components/collision_component.tscn" type="PackedScene" id=3]
[ext_resource path="res://game/ecs/components/move_component.tscn" type="PackedScene" id=4]
[ext_resource path="res://game/ecs/components/ship_component.tscn" type="PackedScene" id=5]

[sub_resource type="CircleShape2D" id=1]
radius = 54.1479

[node name="Ship" type="KinematicBody2D"]
collision_layer = 64
collision_mask = 0
script = ExtResource( 2 )

[node name="Sprite" type="Sprite" parent="."]
texture = ExtResource( 1 )

[node name="CollisionShape2D" type="CollisionShape2D" parent="."]
position = Vector2( -3, -1 )
shape = SubResource( 1 )

[node name="Components" type="Node" parent="."]

[node name="Move" parent="Components" instance=ExtResource( 4 )]

[node name="Collision" parent="Components" instance=ExtResource( 3 )]

[node name="Ship" parent="Components" instance=ExtResource( 5 )]
