[gd_scene load_steps=7 format=2]

[ext_resource path="res://game/assets/meteors/spaceMeteors_001.png" type="Texture" id=1]
[ext_resource path="res://addons/gs_ecs/entity.gd" type="Script" id=2]
[ext_resource path="res://game/ecs/components/collision_component.tscn" type="PackedScene" id=3]
[ext_resource path="res://game/ecs/components/move_component.tscn" type="PackedScene" id=4]
[ext_resource path="res://game/ecs/components/meteor_component.tscn" type="PackedScene" id=5]

[sub_resource type="CircleShape2D" id=1]
radius = 183.134

[node name="Meteor" type="KinematicBody2D"]
scale = Vector2( 0.25, 0.25 )
collision_layer = 128
collision_mask = 153
collision/safe_margin = 0.001
script = ExtResource( 2 )

[node name="Sprite" type="Sprite" parent="."]
texture = ExtResource( 1 )

[node name="CollisionShape2D" type="CollisionShape2D" parent="."]
shape = SubResource( 1 )

[node name="Components" type="Node" parent="."]

[node name="Move" parent="Components" instance=ExtResource( 4 )]
SPEED = 100.0

[node name="Collision" parent="Components" instance=ExtResource( 3 )]

[node name="Meteor" parent="Components" instance=ExtResource( 5 )]
