[gd_scene load_steps=7 format=2]

[ext_resource path="res://game/audio/bassline_SpringEdit1 DX7 BASS.ogg" type="AudioStream" id=1]
[ext_resource path="res://game/scenes/music_manager.gd" type="Script" id=2]
[ext_resource path="res://game/audio/cathedral.wav" type="AudioStream" id=3]
[ext_resource path="res://game/audio/desolation.ogg" type="AudioStream" id=4]
[ext_resource path="res://game/audio/funk2.ogg" type="AudioStream" id=5]
[ext_resource path="res://game/audio/snd_music_beat_level.ogg" type="AudioStream" id=6]

[node name="MusicManager" type="Node2D"]
script = ExtResource( 2 )

[node name="home" type="AudioStreamPlayer" parent="."]
stream = ExtResource( 3 )
volume_db = -20.0

[node name="play" type="AudioStreamPlayer" parent="."]
stream = ExtResource( 1 )
volume_db = -20.0

[node name="lose" type="AudioStreamPlayer" parent="."]
stream = ExtResource( 4 )
volume_db = -20.0

[node name="win" type="AudioStreamPlayer" parent="."]
stream = ExtResource( 6 )
volume_db = -20.0

[node name="scores" type="AudioStreamPlayer" parent="."]
stream = ExtResource( 5 )
volume_db = -20.0

[node name="ready" type="AudioStreamPlayer" parent="."]
stream = ExtResource( 1 )
volume_db = -20.0
